…
Rayforce-Py supports executing a query over any type, including tables:
```python
>>> with engine.acquire() as conn:
...     result = conn.execute(
...         "0!select sum ExecQty by Broker from "
...         "([] Broker:`Bro1`Bro1`Bro2`Bro3; ExecQty:404164 100000 9000 2900)"
...     )

>>> result
Table[Symbol('Broker'), Symbol('ExecQty')]

>>> print(result)
┌────────┬────────────────────────────┐
│ Broker │          ExecQty           │
│  SYM   │            I64             │
├────────┼────────────────────────────┤
│ Bro1   │ 504164                     │
│ Bro2   │ 9000                       │
│ Bro3   │ 2900                       │
├────────┴────────────────────────────┤
│ 3 rows (3 shown) 2 columns (2 shown)│
└─────────────────────────────────────┘
```
