…
>>> df = pl.DataFrame({
...     "id": [1, 2, 3, 4, 5],
...     "name": ["Alice", "Bob", "Charlie", "Diana", "Eve"],
...     "age": [25, 30, 35, 28, 32],
...     "salary": [50000.0, 60000.0, 70000.0, 55000.0, 65000.0],
...     "active": [True, True, False, True, False],
... })

>>> table = from_polars(df)
>>> table
Table(columns=['id', 'name', 'age', 'salary', 'active'])

>>> print(table)
┌────┬─────────┬─────┬──────────┬────────┐
│ id │ name    │ age │ salary   │ active │
├────┼─────────┼─────┼──────────┼────────┤
│ 1  │ Alice   │ 25  │ 50000.0  │ true   │
│ 2  │ Bob     │ 30  │ 60000.0  │ true   │
│ 3  │ Charlie │ 35  │ 70000.0  │ false  │
│ 4  │ Diana   │ 28  │ 55000.0  │ true   │
│ 5  │ Eve     │ 32  │ 65000.0  │ false  │
├────┴─────────┴─────┴──────────┴────────┘
│ 5 rows (5 shown) 5 columns (5 shown)   │
└────────────────────────────────────────┘
```
…
