# :material-human-greeting-variant: Introduction to Rayforce-Py

Rayforce-Py is a powerful library which allows you to effectively execute statements inside RayforceDB runtime using handy Pythonic syntax.

```python
      table.select(
          total=table.amount.sum(),
          active_total=table.amount.where(table.status == "active").sum(),
          count=table.amount.count(),
      )
      .by("category")
      .execute()
      ┌──────────┬───────┬──────────────┬───────┐
      │ category │ total │ active_total │ count │
      ├──────────┼───────┼──────────────┼───────┤
      │ A        │ 600   │ 100          │ 3     │
      │ B        │ 400   │ 400          │ 2     │
      ├──────────┴───────┴──────────────┴───────┤
      │ 2 rows (2 shown) 4 columns (4 shown)    │
…
