…
The `take()` method returns a new table containing a subset of rows from the original table.

When called with a single argument, it takes the first `n` rows:

```python
>>> table = Table({
    "id": Vector(items=["001", "002", "003", "004"], ray_type=Symbol),
    "name": Vector(items=["alice", "bob", "charlie", "dana"], ray_type=Symbol),
    "age": Vector(items=[29, 34, 41, 38], ray_type=I64),
})

>>> first_two = table.take(2)
>>> print(first_two)
┌────────┬────────┬────────────────────┐
│   id   │  name  │        age         │
│ SYMBOL │ SYMBOL │        I64         │
├────────┼────────┼────────────────────┤
│ 001    │ alice  │ 29                 │
│ 002    │ bob    │ 34                 │
├────────┴────────┴────────────────────┤
│ 2 rows (2 shown) 3 columns (3 shown) │
└──────────────────────────────────────┘
```

When called with an `offset` argument, it takes `n` rows starting from the offset:

```python
>>> middle_rows = table.take(2, offset=1)
>>> print(middle_rows)
┌────────┬─────────┬───────────────────┐
│   id   │  name   │        age        │
│ SYMBOL │ SYMBOL  │        I64        │
├────────┼─────────┼───────────────────┤
│ 002    │ bob     │ 34                │
│ 003    │ charlie │ 41                │
├────────┴─────────┴───────────────────┤
│ 2 rows (2 shown) 3 columns (3 shown) │
└──────────────────────────────────────┘
```

When called with a negative number, it takes the last `n` rows:

```python
>>> last_rows = table.take(-2)
>>> print(last_rows)
┌────────┬─────────┬───────────────────┐
│   id   │  name   │        age        │
│ SYMBOL │ SYMBOL  │        I64        │
├────────┼─────────┼───────────────────┤
│ 003    │ charlie │ 41                │
│ 004    │ dana    │ 38                │
├────────┴─────────┴───────────────────┤
│ 2 rows (2 shown) 3 columns (3 shown) │
└──────────────────────────────────────┘
```
…
