…
>>> columns = ["id", "name", "age", "salary"]
>>> values = [
        [1, 2, 3, 4, 5],                                   # id column
        ["Alice", "Bob", "Charlie", "Diana", "Eve"],       # name column  
        [25, 30, 35, 28, 32],                              # age column
        [50000, 60000, 70000, 55000, 65000]                # salary column
    ]

>>> employee_table = Table(columns=columns, values=values)
>>> employee_table
Table(columns=['id', 'name', 'age', 'salary'])

>>> print(employee_table)
┌────┬─────────┬─────┬─────────────────┐
│ id │ name    │ age │ salary          │
├────┼─────────┼─────┼─────────────────┤
│ 1  │ Alice   │ 25  │ 50000           │
│ 2  │ Bob     │ 30  │ 60000           │
│ 3  │ Charlie │ 35  │ 70000           │
│ 4  │ Diana   │ 28  │ 55000           │
│ 5  │ Eve     │ 32  │ 65000           │
├────┴─────────┴─────┴─────────────────┤
│ 5 rows (5 shown) 4 columns (4 shown) │
└──────────────────────────────────────┘
```
…
