…
```python
>>> result = (
    quotes
    .select(
        max_bid=Column("bid").max(),
        min_bid=Column("bid").min(),
        avg_ask=Column("ask").mean(),
        records_count=Column("time").count(),
        first_bid=Column("time").first(),
    )
    .by("symbol")
    .execute()
)
>>> print(result)
┌────────┬─────────┬─────────┬─────────┬───────────────┬──────────────┐
│ symbol │ max_bid │ min_bid │ avg_ask │ records_count │ first_bid    │
├────────┼─────────┼─────────┼─────────┼───────────────┼──────────────┤
│ AAPL   │ 102.00  │ 100.00  │ 111.00  │ 3             │ 09:00:00.095 │
│ GOOG   │ 202.00  │ 200.00  │ 211.00  │ 3             │ 09:00:00.145 │
├────────┴─────────┴─────────┴─────────┴───────────────┴──────────────┤
│ 2 rows (2 shown) 6 columns (6 shown)                                │
└─────────────────────────────────────────────────────────────────────┘
```
…
