…
>>> quotes = Table(
        columns=["sym", "bid", "ask"],
        values=[
            ["AAPL", "GOOG"],
            [50, 100],
            [75, 150],
        ],
    )

>>> result = trades.inner_join(quotes, on="sym")
┌──────┬──────────────┬───────┬─────┬─────┐
│ sym  │ time         │ price │ bid │ ask │
├──────┼──────────────┼───────┼─────┼─────┤
│ AAPL │ 09:00:00.100 │ 100   │ 50  │ 75  │
│ AAPL │ 09:00:00.100 │ 100   │ 50  │ 75  │
│ GOOG │ 09:00:00.200 │ 200   │ 100 │ 150 │
│ GOOG │ 09:00:00.200 │ 200   │ 100 │ 150 │
├──────┴──────────────┴───────┴─────┴─────┤
│ 4 rows (4 shown) 5 columns (5 shown)    │
└─────────────────────────────────────────┘
```
…
