…
>>> stats = scores.select(
        total_students=Column("student_id").count(),      # Count: number of records
        sum_scores=Column("score").sum(),                 # Sum: total of all scores
        avg_score=Column("score").mean(),                 # Mean: average score
        median_score=Column("score").median(),            # Median: middle value
        min_score=Column("score").min(),                  # Min: lowest score
        max_score=Column("score").max(),                  # Max: highest score
        first_student=Column("student_id").first(),       # First: first student ID
        last_subject=Column("subject").last()             # Last: last subject
    ).execute()
┌────────────────┬────────────┬───────────┬──────────────┬───────────┬───────────┬───────────────┬──────────────┐
│ total_students │ sum_scores │ avg_score │ median_score │ min_score │ max_score │ first_student │ last_subject │
├────────────────┼────────────┼───────────┼──────────────┼───────────┼───────────┼───────────────┼──────────────┤
│ 10             │ 885        │ 88.50     │ 89.00        │ 78        │ 96        │ 1             │ Chemistry    │
├────────────────┴────────────┴───────────┴──────────────┴───────────┴───────────┴───────────────┴──────────────┤
│ 1 rows (1 shown) 8 columns (8 shown)                                                                          │
└───────────────────────────────────────────────────────────────────────────────────────────────────────────────┘

>>> unique_subjects = scores.select(
        subject=Column("subject").distinct()              # Distinct: unique values
    ).execute()
┌──────────────────────────────────────┐
│ subject                              │
├──────────────────────────────────────┤
│ Math                                 │
│ Science                              │
│ Chemistry                            │
├──────────────────────────────────────┤
│ 3 rows (3 shown) 1 columns (1 shown) │
└──────────────────────────────────────┘
```
…
